{
  "$schema": "https://ui.shadcn.com/schema.json",
  "style": "default",
  "rsc": true,
  "tsx": false,
  "tailwind": {
    "config": "tailwind.config.js",
    "css": "@/index.css",
    "baseColor": "zinc",
    "cssVariables": true,
    "prefix": ""
  },
  "aliases": {
    "components": ["@/components"],
    "utils": "@/lib/utils"
  }
}