<?xml version="1.0" encoding="utf-8"?>
<!-- Generator: Adobe Illustrator 24.1.2, SVG Export Plug-In . SVG Version: 6.00 Build 0)  -->
<svg version="1.1" id="Layer_1" xmlns="http://www.w3.org/2000/svg" xmlns:xlink="http://www.w3.org/1999/xlink" x="0px" y="0px"
	 viewBox="0 0 200 200" style="enable-background:new 0 0 200 200;" xml:space="preserve">
<style type="text/css">
	.st0{fill:#00AEEF;}
	.st1{fill:#00AEEF;stroke:#000000;stroke-width:6;stroke-miterlimit:10;}
	.st2{fill:#00AEEF;stroke:#000000;stroke-width:5;stroke-miterlimit:10;}
</style>
<rect x="-0.32" y="-0.45" transform="matrix(-1 -1.224647e-16 1.224647e-16 -1 199.3525 199.0935)" class="st0" width="200" height="200"/>
<path class="st1" d="M142.24,111.59V88.41h-10.26c-0.62-2.14-1.41-4.2-2.36-6.17l10.74-10.74l-16.4-16.4L113.9,65.16
	c-2.69-1.59-5.58-2.87-8.63-3.79v-9.93H82.08v9.93c-2.62,0.8-5.13,1.85-7.5,3.14l-9.86-9.86L48.33,71.04l10.01,10.01
	c-1.23,2.33-2.23,4.79-2.97,7.36H45.12v23.18h10.52c0.91,2.88,2.14,5.61,3.66,8.17l-8.74,8.74l16.4,16.4l9.41-9.41h0.01
	c1.83,0.88,3.73,1.63,5.7,2.23v10.84h23.19v-10.84c2.4-0.73,4.71-1.68,6.9-2.84l9.56,9.56l16.39-16.39l-9.41-9.41
	c1.21-2.23,2.22-4.59,3-7.05H142.24z M105.27,104.21c-1.24,3.42-3.96,6.14-7.38,7.38c-1.32,0.48-2.73,0.74-4.21,0.74
	s-2.9-0.26-4.22-0.74c-0.34-0.12-0.68-0.26-1-0.42c-2.63-1.22-4.75-3.35-5.97-5.97c-0.15-0.32-0.29-0.65-0.41-0.99
	c-0.48-1.32-0.74-2.73-0.74-4.21c0-0.87,0.09-1.73,0.27-2.55c0.11-0.57,0.27-1.12,0.47-1.66c1.24-3.42,3.96-6.14,7.38-7.38
	c0.54-0.2,1.09-0.36,1.66-0.47c0.83-0.18,1.68-0.27,2.56-0.27c1.48,0,2.89,0.26,4.21,0.74c0.34,0.12,0.68,0.26,1.01,0.42
	c2.61,1.22,4.73,3.34,5.95,5.95c0.16,0.33,0.3,0.67,0.42,1.01c0.48,1.32,0.74,2.73,0.74,4.21
	C106.01,101.48,105.75,102.89,105.27,104.21z"/>
<path class="st2" d="M157.39,127.13v-15.21h-6.73c-0.41-1.4-0.92-2.76-1.55-4.05l7.05-7.05L145.4,90.07l-6.6,6.6
	c-1.76-1.04-3.66-1.88-5.66-2.49v-6.51h-15.21v6.51c-1.72,0.52-3.37,1.21-4.92,2.06l-6.47-6.47l-10.75,10.75l6.57,6.57
	c-0.81,1.53-1.46,3.14-1.95,4.83h-6.72v15.21h6.9c0.6,1.89,1.4,3.68,2.4,5.36l-5.73,5.73l10.76,10.76l6.17-6.17h0.01
	c1.2,0.58,2.45,1.07,3.74,1.46v7.11h15.21v-7.11c1.57-0.48,3.09-1.1,4.53-1.86l6.27,6.27l10.75-10.75l-6.17-6.17
	c0.79-1.46,1.46-3.01,1.97-4.62H157.39z M133.14,122.29c-0.81,2.24-2.6,4.03-4.84,4.84c-0.87,0.31-1.79,0.49-2.76,0.49
	s-1.9-0.17-2.77-0.49c-0.22-0.08-0.45-0.17-0.66-0.28c-1.73-0.8-3.12-2.2-3.92-3.92c-0.1-0.21-0.19-0.43-0.27-0.65
	c-0.31-0.87-0.49-1.79-0.49-2.76c0-0.57,0.06-1.13,0.18-1.67c0.07-0.37,0.18-0.73,0.31-1.09c0.81-2.24,2.6-4.03,4.84-4.84
	c0.35-0.13,0.72-0.24,1.09-0.31c0.54-0.12,1.1-0.18,1.68-0.18c0.97,0,1.9,0.17,2.76,0.49c0.22,0.08,0.45,0.17,0.66,0.28
	c1.71,0.8,3.1,2.19,3.9,3.9c0.1,0.22,0.2,0.44,0.28,0.66c0.31,0.87,0.49,1.79,0.49,2.76C133.62,120.5,133.45,121.42,133.14,122.29z"
	/>
</svg>
